dec1 calories             input           66487     197301 x
dec2 rock-paper-scissors  input           12535      15457 x
dec3 run                  testinput         157         70 x
dec3 run                  input            7795       2703 x
dec4 overlap              testinput           2          4 x
dec4 overlap              input             602        891 x
dec5 cargo-crane          testinput         CMZ        MCD x 
dec5 cargo-crane          input       QNHWJVJZW  BPCZJLFJW x
dec6 communication        input            1582       3588  